\relax 
\providecommand\hyper@newdestlabel[2]{}
\providecommand\HyperFirstAtBeginDocument{\AtBeginDocument}
\HyperFirstAtBeginDocument{\ifx\hyper@anchor\@undefined
\global\let\oldcontentsline\contentsline
\gdef\contentsline#1#2#3#4{\oldcontentsline{#1}{#2}{#3}}
\global\let\oldnewlabel\newlabel
\gdef\newlabel#1#2{\newlabelxx{#1}#2}
\gdef\newlabelxx#1#2#3#4#5#6{\oldnewlabel{#1}{{#2}{#3}}}
\AtEndDocument{\ifx\hyper@anchor\@undefined
\let\contentsline\oldcontentsline
\let\newlabel\oldnewlabel
\fi}
\fi}
\global\let\hyper@last\relax 
\gdef\HyperFirstAtBeginDocument#1{#1}
\providecommand\HyField@AuxAddToFields[1]{}
\providecommand\HyField@AuxAddToCoFields[2]{}
\bibstyle{elsarticle-num}
\emailauthor{d.corus@sheffield.ac.uk}{Dogan Corus}
\emailauthor{p.oliveto@sheffield.ac.uk}{Pietro S. Oliveto}
\emailauthor{dyazdani1@sheffield.ac.uk}{Donya Yazdani}
\citation{CorusOlivetoYazdani2018}
\citation{ComputerSecurityApp,VirusDetectApp,AnamolyDetectApp}
\citation{Burnet1959}
\citation{decastro}
\citation{kelsey}
\citation{CutelloTEVC}
\citation{JansenZarges2012}
\citation{JansenOlivetoZarges2011}
\Newlabel{mytitlenote}{1}
\@writefile{toc}{\contentsline {section}{\numberline {1}Introduction}{1}{section.1}}
\citation{CorusOlivetoYazdani2017}
\citation{DoerrGecco2017,OlivetoLehreNeumann2009,CorusOlivetoTEVC,JumpTEVC2017,DoerrDoerrEbel2015}
\citation{LehrWitt2012}
\citation{EasiestFunctions}
\citation{GareyJohnson1979}
\citation{Pinedo2016,Hayes2002}
\citation{Witt2005,NeumannWitt2015}
\citation{CorusOlivetoYazdani2017}
\citation{Burnet1959}
\citation{Janeway2011}
\citation{CutelloTEVC}
\@writefile{loa}{\contentsline {algorithm}{\numberline {1}{\ignorespaces (1+1)\nobreakspace  {}IA$^{hyp}$\nobreakspace  {}\cite  {CorusOlivetoYazdani2017} for minimisation}}{3}{algorithm.1}}
\newlabel{alg:hyp}{{1}{3}{Preliminaries}{algorithm.1}{}}
\@writefile{toc}{\contentsline {section}{\numberline {2}Preliminaries}{3}{section.2}}
\@writefile{toc}{\contentsline {subsection}{\numberline {2.1}Artificial Immune Systems and Evolutionary Algorithms}{3}{subsection.2.1}}
\citation{CorusOlivetoYazdani2017}
\citation{CorusOlivetoYazdani2017}
\citation{CorusOlivetoYazdani2017}
\citation{DrosteJansenWegener2002}
\citation{OlivetoSudholt2014}
\citation{DrosteJansenWegener2002}
\citation{JansenZarges2011c}
\citation{OlivetoSudholt2014,CorusOlivetoYazdani2017}
\citation{Witt2006}
\@writefile{loa}{\contentsline {algorithm}{\numberline {2}{\ignorespaces $(\mu +1)\nobreakspace  {}\text  {EA}^{ageing}$ \cite  {OlivetoSudholt2014} for minimisation}}{5}{algorithm.2}}
\newlabel{alg:ageing}{{2}{5}{Artificial Immune Systems and Evolutionary Algorithms}{algorithm.2}{}}
\@writefile{loa}{\contentsline {algorithm}{\numberline {3}{\ignorespaces (1+1)\nobreakspace  {}EA\nobreakspace  {}\cite  {DrosteJansenWegener2002} for minimisation}}{5}{algorithm.3}}
\newlabel{alg:oneea}{{3}{5}{Artificial Immune Systems and Evolutionary Algorithms}{algorithm.3}{}}
\citation{corus2016}
\citation{sutton2014,corus2016}
\citation{chauhan2017}
\citation{DOERR201312}
\citation{doerr2017time}
\citation{neumann2018runtime}
\citation{sutton2016superpolynomial}
\citation{CorusOlivetoTEVC,JumpTEVC2017,LengelerPPSN2018,LehrTEVC2018}
\citation{Sutton2018}
\citation{NeumannWitt2010}
\citation{LandauRef}
\citation{Pinedo2016}
\citation{Karp1972,BrunoCoffmanSethi1974}
\@writefile{toc}{\contentsline {subsection}{\numberline {2.2}Makespan Scheduling and \textsc  {Partition}\xspace  }{6}{subsection.2.2}}
\@writefile{loe}{\contentsline {definition}{\numberline {1}Definition}{6}{definition.1}}
\citation{Pinedo2016}
\citation{Graham1969}
\citation{HochbaumShmoys1987}
\citation{HochbaumShmoys1987}
\citation{Sahni1976}
\@writefile{toc}{\contentsline {subsubsection}{\numberline {2.2.1}Problem-specific Algorithms}{7}{subsubsection.2.2.1}}
\@writefile{toc}{\contentsline {subsubsection}{\numberline {2.2.2}General Purpose Heuristics}{7}{subsubsection.2.2.2}}
\citation{Witt2005}
\citation{Witt2005}
\citation{Witt2005}
\citation{feller1968}
\citation{mitzenmacher2005probability}
\citation{mitzenmacher2005probability}
\@writefile{toc}{\contentsline {subsection}{\numberline {2.3}Mathematical Techniques for the Analysis}{8}{subsection.2.3}}
\citation{DoerrNewTool}
\citation{DoerrNewTool}
\citation{DoerrNewTool,OlivetoHeYao2011,jansenbook,LehreOliveto2018,lenglerNew}
\citation{DoerrNewTool}
\@writefile{loe}{\contentsline {theorem}{\numberline {1}Theorem\thmtformatoptarg {Theorem\nobreakspace  {}10.1 and Theorem\nobreakspace  {}10.5 in\nobreakspace  {}\cite  {DoerrNewTool}}}{9}{theorem.1}}
\newlabel{thm-cher}{{1}{9}{Theorem~10.1 and Theorem~10.5 in~\cite {DoerrNewTool}}{theorem.1}{}}
\@writefile{loe}{\contentsline {lemma}{\numberline {1}Lemma\thmtformatoptarg {Lemma\nobreakspace  {}10.15 in \cite  {DoerrNewTool}}}{9}{lemma.1}}
\newlabel{lem:binom}{{1}{9}{Lemma~10.15 in \cite {DoerrNewTool}}{lemma.1}{}}
\@writefile{toc}{\contentsline {subsection}{\numberline {2.4}General Preliminary Results}{9}{subsection.2.4}}
\@writefile{loe}{\contentsline {lemma}{\numberline {2}Lemma}{9}{lemma.2}}
\newlabel{lem:local}{{2}{9}{}{lemma.2}{}}
\citation{Witt2005}
\citation{Witt2005}
\@writefile{lof}{\contentsline {figure}{\numberline {1}{\ignorespaces The 4/3 approximation local optimum of $P^*_\epsilon $\nobreakspace  {}\cite  {Witt2005}}}{11}{figure.1}}
\newlabel{fig:twojobs}{{1}{11}{The 4/3 approximation local optimum of $P^*_\epsilon $~\cite {Witt2005}}{figure.1}{}}
\@writefile{lof}{\contentsline {figure}{\numberline {2}{\ignorespaces A local optimum of $G^*_{\epsilon }$\xspace  }}{11}{figure.2}}
\newlabel{fig:generalised}{{2}{11}{A local optimum of \WittGeneralisedInstance }{figure.2}{}}
\@writefile{toc}{\contentsline {section}{\numberline {3}Generalised Worst-Case Instance}{11}{section.3}}
\newlabel{sec:generalised}{{3}{11}{Generalised Worst-Case Instance}{section.3}{}}
\@writefile{loe}{\contentsline {definition}{\numberline {2}Definition}{12}{definition.2}}
\newlabel{def-instance}{{2}{12}{}{definition.2}{}}
\@writefile{loe}{\contentsline {property}{\numberline {1}Property}{12}{property.1}}
\newlabel{prop:levelwitt}{{1}{12}{}{property.1}{}}
\citation{Witt2005}
\citation{Witt2005}
\newlabel{thmt@@theoremone@data}{{\def \theequation {\@arabic {\c@equation }}\def \theHequation {(restate \theHthmt@dummyctr )3.\@arabic {\c@equation }}\setcounter {equation}{0}}{14}{Generalised Worst-Case Instance}{Item.7}{}}
\@writefile{loe}{\contentsline {theorem}{\numberline {2}Theorem}{14}{theorem.2}}
\newlabel{thmt@@theoremone}{{2}{14}{}{theorem.2}{}}
\newlabel{th:1+1}{{2}{14}{}{theorem.2}{}}
\@writefile{toc}{\contentsline {subsection}{\numberline {3.1}Hypermutations}{15}{subsection.3.1}}
\newlabel{thmt@@hypinterv@data}{{\def \theequation {\@arabic {\c@equation }}\def \theHequation {(restate \theHthmt@dummyctr )3.\@arabic {\c@equation }}\setcounter {equation}{0}}{16}{Hypermutations}{subsection.3.1}{}}
\@writefile{loe}{\contentsline {lemma}{\numberline {3}Lemma}{16}{lemma.3}}
\newlabel{thmt@@hypinterv}{{3}{16}{}{lemma.3}{}}
\newlabel{lem:hypinterv}{{3}{16}{}{lemma.3}{}}
\newlabel{thmt@@hypmain@data}{{\def \theequation {\@arabic {\c@equation }}\def \theHequation {(restate \theHthmt@dummyctr )3.\@arabic {\c@equation }}\setcounter {equation}{0}}{16}{Hypermutations}{lemma.3}{}}
\@writefile{loe}{\contentsline {theorem}{\numberline {3}Theorem}{16}{theorem.3}}
\newlabel{thmt@@hypmain}{{3}{16}{}{theorem.3}{}}
\newlabel{thm:hypmain}{{3}{16}{}{theorem.3}{}}
\newlabel{thmt@@thaislocal@data}{{\def \theequation {\@arabic {\c@equation }}\def \theHequation {(restate \theHthmt@dummyctr )3.\@arabic {\c@equation }}\setcounter {equation}{0}}{17}{Hypermutations}{theorem.3}{}}
\citation{Witt2005}
\citation{OlivetoSudholt2014}
\@writefile{loe}{\contentsline {theorem}{\numberline {4}Theorem}{18}{theorem.4}}
\newlabel{thmt@@thaislocal}{{4}{18}{}{theorem.4}{}}
\@writefile{loe}{\contentsline {corollary}{\numberline {1}Corollary}{18}{corollary.1}}
\@writefile{toc}{\contentsline {subsection}{\numberline {3.2}Ageing}{18}{subsection.3.2}}
\@writefile{loe}{\contentsline {lemma}{\numberline {4}Lemma}{19}{lemma.4}}
\newlabel{lem:ageto}{{4}{19}{}{lemma.4}{}}
\@writefile{loe}{\contentsline {lemma}{\numberline {5}Lemma}{19}{lemma.5}}
\newlabel{lem:restart}{{5}{19}{}{lemma.5}{}}
\newlabel{thmt@@thageinglocal@data}{{\def \theequation {\@arabic {\c@equation }}\def \theHequation {(restate \theHthmt@dummyctr )3.\@arabic {\c@equation }}\setcounter {equation}{0}}{20}{Ageing}{lemma.5}{}}
\@writefile{loe}{\contentsline {theorem}{\numberline {5}Theorem}{20}{theorem.5}}
\newlabel{thmt@@thageinglocal}{{5}{20}{}{theorem.5}{}}
\newlabel{th:ageingG}{{5}{20}{}{theorem.5}{}}
\@writefile{loe}{\contentsline {corollary}{\numberline {2}Corollary}{21}{corollary.2}}
\@writefile{toc}{\contentsline {section}{\numberline {4}$(1+\epsilon )$ Approximation Ratios}{21}{section.4}}
\newlabel{sec:approx}{{4}{21}{$(1+\epsilon )$ Approximation Ratios}{section.4}{}}
\@writefile{loe}{\contentsline {property}{\numberline {2}Property}{22}{property.2}}
\newlabel{prop:approx}{{2}{22}{}{property.2}{}}
\@writefile{toc}{\contentsline {subsection}{\numberline {4.1}Hypermutations}{22}{subsection.4.1}}
\newlabel{thmt@@funcflow@data}{{\def \theequation {\@arabic {\c@equation }}\def \theHequation {(restate \theHthmt@dummyctr )4.\@arabic {\c@equation }}\setcounter {equation}{0}}{22}{Hypermutations}{subsection.4.1}{}}
\@writefile{loe}{\contentsline {lemma}{\numberline {6}Lemma}{22}{lemma.6}}
\newlabel{thmt@@funcflow}{{6}{22}{}{lemma.6}{}}
\newlabel{lem:funcflow}{{6}{22}{}{lemma.6}{}}
\citation{Witt2005}
\newlabel{thmt@@mainresulthyp@data}{{\def \theequation {\@arabic {\c@equation }}\def \theHequation {(restate \theHthmt@dummyctr )4.\@arabic {\c@equation }}\setcounter {equation}{0}}{23}{Hypermutations}{lemma.6}{}}
\@writefile{loe}{\contentsline {theorem}{\numberline {6}Theorem}{23}{theorem.6}}
\newlabel{thmt@@mainresulthyp}{{6}{23}{}{theorem.6}{}}
\newlabel{thm:approxhyp}{{6}{23}{}{theorem.6}{}}
\citation{Witt2005,NeumannWitt2010}
\citation{Witt2005}
\@writefile{toc}{\contentsline {subsection}{\numberline {4.2}Ageing}{24}{subsection.4.2}}
\newlabel{thmt@@thmapproxage@data}{{\def \theequation {\@arabic {\c@equation }}\def \theHequation {(restate \theHthmt@dummyctr )4.\@arabic {\c@equation }}\setcounter {equation}{0}}{24}{Ageing}{subsection.4.2}{}}
\@writefile{loe}{\contentsline {theorem}{\numberline {7}Theorem}{24}{theorem.7}}
\newlabel{thmt@@thmapproxage}{{7}{24}{}{theorem.7}{}}
\newlabel{thm:approxage}{{7}{24}{}{theorem.7}{}}
\citation{Witt2005}
\citation{CutelloTEVC,CorusOlivetoYazdani2017}
\bibdata{mybib2}
\bibcite{CorusOlivetoYazdani2018}{{1}{}{{}}{{}}}
\bibcite{ComputerSecurityApp}{{2}{}{{}}{{}}}
\bibcite{VirusDetectApp}{{3}{}{{}}{{}}}
\bibcite{AnamolyDetectApp}{{4}{}{{}}{{}}}
\bibcite{Burnet1959}{{5}{}{{}}{{}}}
\bibcite{decastro}{{6}{}{{}}{{}}}
\bibcite{kelsey}{{7}{}{{}}{{}}}
\bibcite{CutelloTEVC}{{8}{}{{}}{{}}}
\@writefile{toc}{\contentsline {section}{\numberline {5}Conclusion}{25}{section.5}}
\bibcite{JansenZarges2012}{{9}{}{{}}{{}}}
\bibcite{JansenOlivetoZarges2011}{{10}{}{{}}{{}}}
\bibcite{CorusOlivetoYazdani2017}{{11}{}{{}}{{}}}
\bibcite{DoerrGecco2017}{{12}{}{{}}{{}}}
\bibcite{OlivetoLehreNeumann2009}{{13}{}{{}}{{}}}
\bibcite{CorusOlivetoTEVC}{{14}{}{{}}{{}}}
\bibcite{JumpTEVC2017}{{15}{}{{}}{{}}}
\bibcite{DoerrDoerrEbel2015}{{16}{}{{}}{{}}}
\bibcite{LehrWitt2012}{{17}{}{{}}{{}}}
\bibcite{EasiestFunctions}{{18}{}{{}}{{}}}
\bibcite{GareyJohnson1979}{{19}{}{{}}{{}}}
\bibcite{Pinedo2016}{{20}{}{{}}{{}}}
\bibcite{Hayes2002}{{21}{}{{}}{{}}}
\bibcite{Witt2005}{{22}{}{{}}{{}}}
\bibcite{NeumannWitt2015}{{23}{}{{}}{{}}}
\bibcite{Janeway2011}{{24}{}{{}}{{}}}
\bibcite{DrosteJansenWegener2002}{{25}{}{{}}{{}}}
\bibcite{OlivetoSudholt2014}{{26}{}{{}}{{}}}
\bibcite{JansenZarges2011c}{{27}{}{{}}{{}}}
\bibcite{Witt2006}{{28}{}{{}}{{}}}
\bibcite{corus2016}{{29}{}{{}}{{}}}
\bibcite{sutton2014}{{30}{}{{}}{{}}}
\bibcite{chauhan2017}{{31}{}{{}}{{}}}
\bibcite{DOERR201312}{{32}{}{{}}{{}}}
\bibcite{doerr2017time}{{33}{}{{}}{{}}}
\bibcite{neumann2018runtime}{{34}{}{{}}{{}}}
\bibcite{sutton2016superpolynomial}{{35}{}{{}}{{}}}
\bibcite{LengelerPPSN2018}{{36}{}{{}}{{}}}
\bibcite{LehrTEVC2018}{{37}{}{{}}{{}}}
\bibcite{Sutton2018}{{38}{}{{}}{{}}}
\bibcite{NeumannWitt2010}{{39}{}{{}}{{}}}
\bibcite{LandauRef}{{40}{}{{}}{{}}}
\bibcite{Karp1972}{{41}{}{{}}{{}}}
\bibcite{BrunoCoffmanSethi1974}{{42}{}{{}}{{}}}
\bibcite{Graham1969}{{43}{}{{}}{{}}}
\bibcite{HochbaumShmoys1987}{{44}{}{{}}{{}}}
\bibcite{GhalamiGrosu2018}{{45}{}{{}}{{}}}
\bibcite{Sahni1976}{{46}{}{{}}{{}}}
\bibcite{feller1968}{{47}{}{{}}{{}}}
\bibcite{mitzenmacher2005probability}{{48}{}{{}}{{}}}
\bibcite{DoerrNewTool}{{49}{}{{}}{{}}}
\bibcite{OlivetoHeYao2011}{{50}{}{{}}{{}}}
\bibcite{jansenbook}{{51}{}{{}}{{}}}
\bibcite{LehreOliveto2018}{{52}{}{{}}{{}}}
\bibcite{lenglerNew}{{53}{}{{}}{{}}}
\providecommand\NAT@force@numbers{}\NAT@force@numbers
