\relax 
\@writefile{toc}{\contentsline {title}{[}{2}}
\@writefile{toc}{\authcount {3}}
\@writefile{toc}{\contentsline {author}{Dogan Corus \and Pietro S. Oliveto \and Donya Yazdani}{2}}
\citation{PatternRecogApp}
\citation{ComputerSecurityApp}
\citation{VirusDetectApp}
\citation{AnamolyDetectApp}
\citation{Burnet1959}
\citation{decastro}
\citation{kelsey}
\citation{CutelloTEVC}
\citation{JansenOlivetoZarges2011}
\citation{JansenZarges2012}
\citation{CorusOlivetoYazdani2017}
\citation{DoerrGecco2017,OlivetoLehreNeumann2009}
\citation{EasiestFunctions}
\@writefile{toc}{\contentsline {title}{No Title Given}{3}}
\@writefile{toc}{\authcount {1}}
\@writefile{toc}{\contentsline {author}{No Author Given}{3}}
\@writefile{toc}{\contentsline {section}{\numberline {1}Introduction}{3}}
\citation{Witt2005,NeumannWitt2010}
\citation{CorusOlivetoYazdani2017}
\citation{CutelloTEVC}
\citation{CorusOlivetoYazdani2017}
\citation{CorusOlivetoYazdani2017}
\citation{DrosteJansenWegener2002,OlivetoHeYao2011}
\citation{OlivetoSudholt2014}
\@writefile{toc}{\contentsline {section}{\numberline {2}Preliminaries}{4}}
\citation{JansenZarges2011c}
\citation{OlivetoSudholt2014,CorusOlivetoYazdani2017}
\@writefile{loa}{\contentsline {algorithm}{\numberline {1}{\ignorespaces (1+1)\nobreakspace  {}IA$^{hyp}$\nobreakspace  {}\cite  {CorusOlivetoYazdani2017} for minimisation}}{5}}
\newlabel{alg:hyp}{{1}{5}}
\citation{Graham1969}
\citation{Hochbaum1997}
\@writefile{loa}{\contentsline {algorithm}{\numberline {2}{\ignorespaces $(\mu +1)\nobreakspace  {}\text  {EA}^{ageing}$ \cite  {OlivetoSudholt2014} for minimisation}}{6}}
\newlabel{alg:ageing}{{2}{6}}
\citation{Witt2005,NeumannWitt2010}
\citation{DrosteJansenWegener2002,OlivetoHeYao2011}
\citation{Witt2005}
\@writefile{loa}{\contentsline {algorithm}{\numberline {3}{\ignorespaces (1+1)\nobreakspace  {}EA\nobreakspace  {}\cite  {DrosteJansenWegener2002,OlivetoHeYao2011}}}{7}}
\newlabel{alg:oneea}{{3}{7}}
\@writefile{lof}{\contentsline {figure}{\numberline {1}{\ignorespaces The 4/3 approximation local optimum of $P^*_\epsilon $\nobreakspace  {}\cite  {Witt2005}}}{7}}
\newlabel{fig:twojobs}{{1}{7}}
\citation{Witt2005}
\@writefile{lof}{\contentsline {figure}{\numberline {2}{\ignorespaces A local optimum of $G^*_{\epsilon }$\xspace  }}{8}}
\newlabel{fig:generalised}{{2}{8}}
\@writefile{toc}{\contentsline {section}{\numberline {3}Generalised Worst-Case Instance}{8}}
\newlabel{sec:generalised}{{3}{8}}
\citation{Witt2005}
\@writefile{toc}{\contentsline {subsection}{\numberline {3.1}Hypermutations}{10}}
\newlabel{thmt@@bitflip@data}{{\def \theequation {\@arabic {\c@equation }}\setcounter {equation}{0}}{10}}
\newlabel{thmt@@bitflip}{{1}{10}}
\newlabel{lem:bitflip}{{1}{10}}
\citation{serfling1974probability}
\newlabel{thmt@@hypinterv@data}{{\def \theequation {\@arabic {\c@equation }}\setcounter {equation}{0}}{11}}
\newlabel{thmt@@hypinterv}{{2}{11}}
\newlabel{lem:hypinterv}{{2}{11}}
\newlabel{thmt@@hypmain@data}{{\def \theequation {\@arabic {\c@equation }}\setcounter {equation}{0}}{11}}
\newlabel{thmt@@hypmain}{{2}{11}}
\newlabel{thm:hypmain}{{2}{11}}
\newlabel{thmt@@hypmaincor@data}{{\def \theequation {\@arabic {\c@equation }}\setcounter {equation}{0}}{11}}
\newlabel{thmt@@hypmaincor}{{1}{11}}
\newlabel{cor:hypmain}{{1}{11}}
\citation{Witt2005}
\@writefile{toc}{\contentsline {subsection}{\numberline {3.2}Ageing}{13}}
\citation{OlivetoSudholt2014}
\newlabel{th:ageingG}{{4}{14}}
\@writefile{toc}{\contentsline {section}{\numberline {4}$(1+\epsilon )$ Approximation Ratios}{15}}
\newlabel{sec:approx}{{4}{15}}
\@writefile{toc}{\contentsline {subsection}{\numberline {4.1}Hypermutations}{15}}
\newlabel{lem:funcflow}{{3}{15}}
\newlabel{thm:approxhyp}{{5}{15}}
\citation{Witt2005}
\citation{Witt2005}
\bibstyle{unsrt}
\bibdata{mybib}
\@writefile{toc}{\contentsline {subsection}{\numberline {4.2}Ageing}{18}}
\newlabel{thm:approxage}{{6}{18}}
\@writefile{toc}{\contentsline {section}{\numberline {5}Conclusion}{18}}
\bibcite{PatternRecogApp}{1}
\bibcite{ComputerSecurityApp}{2}
\bibcite{VirusDetectApp}{3}
\bibcite{AnamolyDetectApp}{4}
\bibcite{Burnet1959}{5}
\bibcite{decastro}{6}
\bibcite{kelsey}{7}
\bibcite{CutelloTEVC}{8}
\bibcite{JansenOlivetoZarges2011}{9}
\bibcite{JansenZarges2012}{10}
\bibcite{CorusOlivetoYazdani2017}{11}
\bibcite{DoerrGecco2017}{12}
\bibcite{OlivetoLehreNeumann2009}{13}
\bibcite{EasiestFunctions}{14}
\bibcite{Witt2005}{15}
\bibcite{NeumannWitt2010}{16}
\bibcite{DrosteJansenWegener2002}{17}
\bibcite{OlivetoHeYao2011}{18}
\bibcite{OlivetoSudholt2014}{19}
\bibcite{JansenZarges2011c}{20}
\bibcite{Graham1969}{21}
\bibcite{Hochbaum1997}{22}
\bibcite{serfling1974probability}{23}
\citation{serfling1974probability}
\@writefile{toc}{\contentsline {section}{\numberline {A}Appendix}{21}}
\citation{OlivetoHeYao2011}
\newlabel{thm:serfling}{{7}{22}}
