\relax 
\citation{ComputerSecurityApp,VirusDetectApp,AnamolyDetectApp}
\citation{decastro}
\citation{kelsey}
\citation{CutelloTEVC}
\citation{JansenOlivetoZarges2011}
\citation{JansenZarges2012}
\@writefile{toc}{\contentsline {title}{Artificial Immune Systems Can Find Arbitrarily Good Approximations for the NP-Hard Partition Problem}{1}}
\@writefile{toc}{\authcount {3}}
\@writefile{toc}{\contentsline {author}{Dogan Corus \and Pietro S. Oliveto \and Donya Yazdani}{1}}
\@writefile{toc}{\contentsline {section}{\numberline {1}Introduction}{1}}
\citation{CorusOlivetoYazdani2017}
\citation{DoerrGecco2017,OlivetoLehreNeumann2009,CorusOlivetoTEVC,JumpTEVC2017,DoerrDoerrEbel2015}
\citation{EasiestFunctions}
\citation{Witt2005,NeumannWitt2010,NeumannWitt2015}
\citation{CorusOlivetoYazdani2018arxiv2}
\citation{CorusOlivetoYazdani2017}
\citation{CutelloTEVC}
\citation{CorusOlivetoYazdani2017}
\citation{CorusOlivetoYazdani2017}
\citation{CorusOlivetoYazdani2017}
\citation{DrosteJansenWegener2002,OlivetoHeYao2011}
\citation{OlivetoSudholt2014}
\@writefile{loa}{\contentsline {algorithm}{\numberline {1}{\ignorespaces (1+1)\nobreakspace  {}IA$^{hyp}$\nobreakspace  {}\cite  {CorusOlivetoYazdani2017} for minimisation}}{3}}
\newlabel{alg:hyp}{{1}{3}}
\@writefile{toc}{\contentsline {section}{\numberline {2}Preliminaries}{3}}
\citation{JansenZarges2011c}
\citation{OlivetoSudholt2014,CorusOlivetoYazdani2017}
\citation{LehreOliveto2018,OlivetoHeYao2011}
\citation{Graham1969}
\citation{Hochbaum1997}
\citation{Witt2005,NeumannWitt2010}
\citation{Witt2005,NeumannWitt2010}
\@writefile{loa}{\contentsline {algorithm}{\numberline {2}{\ignorespaces $(\mu +1)\nobreakspace  {}\text  {EA}^{ageing}$ \cite  {OlivetoSudholt2014} for minimisation}}{4}}
\newlabel{alg:ageing}{{2}{4}}
\citation{Witt2005}
\@writefile{toc}{\contentsline {section}{\numberline {3}Generalised Worst-Case Instance}{5}}
\newlabel{sec:generalised}{{3}{5}}
\citation{Witt2005}
\newlabel{thmt@@theoremone@data}{{\def \theequation {\@arabic {\c@equation }}\setcounter {equation}{0}}{6}}
\newlabel{thmt@@theoremone}{{1}{6}}
\newlabel{th:1+1}{{1}{6}}
\@writefile{toc}{\contentsline {subsection}{\numberline {3.1}Hypermutations}{6}}
\newlabel{thmt@@bitflip@data}{{\def \theequation {\@arabic {\c@equation }}\setcounter {equation}{0}}{6}}
\newlabel{thmt@@bitflip}{{1}{6}}
\newlabel{lem:bitflip}{{1}{6}}
\newlabel{thmt@@hypinterv@data}{{\def \theequation {\@arabic {\c@equation }}\setcounter {equation}{0}}{6}}
\newlabel{thmt@@hypinterv}{{2}{6}}
\newlabel{lem:hypinterv}{{2}{6}}
\citation{serfling1974probability}
\citation{Witt2005}
\newlabel{thmt@@hypmain@data}{{\def \theequation {\@arabic {\c@equation }}\setcounter {equation}{0}}{7}}
\newlabel{thmt@@hypmain}{{2}{7}}
\newlabel{thm:hypmain}{{2}{7}}
\newlabel{thmt@@hypmaincor@data}{{\def \theequation {\@arabic {\c@equation }}\setcounter {equation}{0}}{7}}
\newlabel{thmt@@hypmaincor}{{1}{7}}
\newlabel{cor:hypmain}{{1}{7}}
\newlabel{thmt@@thaislocal@data}{{\def \theequation {\@arabic {\c@equation }}\setcounter {equation}{0}}{7}}
\newlabel{thmt@@thaislocal}{{3}{7}}
\citation{Witt2005}
\citation{Witt2005}
\@writefile{toc}{\contentsline {subsection}{\numberline {3.2}Ageing}{8}}
\newlabel{thmt@@thageinglocal@data}{{\def \theequation {\@arabic {\c@equation }}\setcounter {equation}{0}}{8}}
\newlabel{thmt@@thageinglocal}{{4}{8}}
\newlabel{th:ageingG}{{4}{8}}
\@writefile{toc}{\contentsline {section}{\numberline {4}$(1+\epsilon )$ Approximation Ratios}{8}}
\newlabel{sec:approx}{{4}{8}}
\@writefile{toc}{\contentsline {subsection}{\numberline {4.1}Hypermutations}{8}}
\newlabel{thmt@@funcflow@data}{{\def \theequation {\@arabic {\c@equation }}\setcounter {equation}{0}}{8}}
\newlabel{thmt@@funcflow}{{3}{8}}
\newlabel{lem:funcflow}{{3}{8}}
\newlabel{thmt@@mainresulthyp@data}{{\def \theequation {\@arabic {\c@equation }}\setcounter {equation}{0}}{8}}
\newlabel{thmt@@mainresulthyp}{{5}{8}}
\newlabel{thm:approxhyp}{{5}{8}}
\citation{Witt2005,NeumannWitt2010}
\@writefile{toc}{\contentsline {subsection}{\numberline {4.2}Ageing}{10}}
\newlabel{thmt@@thmapproxage@data}{{\def \theequation {\@arabic {\c@equation }}\setcounter {equation}{0}}{10}}
\citation{CutelloTEVC,CorusOlivetoYazdani2017}
\bibstyle{unsrt}
\bibdata{mybib2}
\bibcite{ComputerSecurityApp}{1}
\bibcite{VirusDetectApp}{2}
\bibcite{AnamolyDetectApp}{3}
\bibcite{decastro}{4}
\bibcite{kelsey}{5}
\bibcite{CutelloTEVC}{6}
\bibcite{JansenOlivetoZarges2011}{7}
\bibcite{JansenZarges2012}{8}
\bibcite{CorusOlivetoYazdani2017}{9}
\newlabel{thmt@@thmapproxage}{{6}{11}}
\newlabel{thm:approxage}{{6}{11}}
\@writefile{toc}{\contentsline {section}{\numberline {5}Conclusion}{11}}
\bibcite{DoerrGecco2017}{10}
\bibcite{OlivetoLehreNeumann2009}{11}
\bibcite{CorusOlivetoTEVC}{12}
\bibcite{JumpTEVC2017}{13}
\bibcite{DoerrDoerrEbel2015}{14}
\bibcite{EasiestFunctions}{15}
\bibcite{Witt2005}{16}
\bibcite{NeumannWitt2010}{17}
\bibcite{NeumannWitt2015}{18}
\bibcite{CorusOlivetoYazdani2018arxiv2}{19}
\bibcite{DrosteJansenWegener2002}{20}
\bibcite{OlivetoHeYao2011}{21}
\bibcite{OlivetoSudholt2014}{22}
\bibcite{JansenZarges2011c}{23}
\bibcite{LehreOliveto2018}{24}
\bibcite{Graham1969}{25}
\bibcite{Hochbaum1997}{26}
\bibcite{serfling1974probability}{27}
\citation{Witt2005}
\@writefile{toc}{\contentsline {section}{\numberline {A}Appendix}{13}}
\citation{serfling1974probability}
\citation{OlivetoHeYao2011}
\newlabel{thm:serfling}{{7}{15}}
\citation{OlivetoSudholt2014}
\citation{Witt2005}
