\relax 
\providecommand\hyper@newdestlabel[2]{}
\providecommand\HyperFirstAtBeginDocument{\AtBeginDocument}
\HyperFirstAtBeginDocument{\ifx\hyper@anchor\@undefined
\global\let\oldcontentsline\contentsline
\gdef\contentsline#1#2#3#4{\oldcontentsline{#1}{#2}{#3}}
\global\let\oldnewlabel\newlabel
\gdef\newlabel#1#2{\newlabelxx{#1}#2}
\gdef\newlabelxx#1#2#3#4#5#6{\oldnewlabel{#1}{{#2}{#3}}}
\AtEndDocument{\ifx\hyper@anchor\@undefined
\let\contentsline\oldcontentsline
\let\newlabel\oldnewlabel
\fi}
\fi}
\global\let\hyper@last\relax 
\gdef\HyperFirstAtBeginDocument#1{#1}
\providecommand\HyField@AuxAddToFields[1]{}
\providecommand\HyField@AuxAddToCoFields[2]{}
\citation{PatternRecogApp}
\citation{ComputerSecurityApp}
\citation{VirusDetectApp}
\citation{AnamolyDetectApp}
\citation{Burnet1959}
\citation{decastro}
\citation{kelsey}
\citation{CutelloTEVC}
\citation{JansenOlivetoZarges2011}
\citation{JansenZarges2012}
\citation{CorusOlivetoYazdani2017}
\citation{DoerrGecco2017,OlivetoLehreNeumann2009}
\citation{EasiestFunctions}
\citation{Witt2005,NeumannWitt2010}
\@writefile{toc}{\contentsline {section}{Abstract}{1}{section*.1}}
\@writefile{toc}{\contentsline {section}{\numberline {1}Introduction}{1}{section.1}}
\citation{CorusOlivetoYazdani2017}
\citation{CorusOlivetoYazdani2017}
\citation{CutelloTEVC}
\citation{CorusOlivetoYazdani2017}
\citation{CorusOlivetoYazdani2017}
\citation{CorusOlivetoYazdani2017}
\citation{DrosteJansenWegener2002,OlivetoHeYao2011}
\citation{OlivetoSudholt2014}
\citation{OlivetoSudholt2014}
\citation{JansenZarges2011c}
\citation{OlivetoSudholt2014,CorusOlivetoYazdani2017}
\@writefile{loa}{\contentsline {algorithm}{\numberline {1}{\ignorespaces (1+1)\nonbreakingspace IA$^{hyp}$\nonbreakingspace \citep  {CorusOlivetoYazdani2017} for minimisation\relax }}{2}{algorithm.1}}
\providecommand*\caption@xref[2]{\@setref\relax\@undefined{#1}}
\newlabel{alg:hyp}{{1}{2}{(1+1)~IA$^{hyp}$~\cite {CorusOlivetoYazdani2017} for minimisation\relax }{algorithm.1}{}}
\@writefile{toc}{\contentsline {section}{\numberline {2}Preliminaries}{2}{section.2}}
\@writefile{loa}{\contentsline {algorithm}{\numberline {2}{\ignorespaces $(\mu +1)\nonbreakingspace \text  {EA}^{ageing}$ \citep  {OlivetoSudholt2014} for minimisation\relax }}{2}{algorithm.2}}
\newlabel{alg:ageing}{{2}{2}{\muoneeaageing \cite {OlivetoSudholt2014} for minimisation\relax }{algorithm.2}{}}
\citation{Graham1969}
\citation{Hochbaum1997}
\citation{Witt2005,NeumannWitt2010}
\citation{DrosteJansenWegener2002,OlivetoHeYao2011}
\citation{DrosteJansenWegener2002,OlivetoHeYao2011}
\citation{Witt2005}
\citation{Witt2005}
\citation{Witt2005}
\@writefile{loa}{\contentsline {algorithm}{\numberline {3}{\ignorespaces (1+1)\nonbreakingspace EA\nonbreakingspace \citep  {DrosteJansenWegener2002,OlivetoHeYao2011}\relax }}{3}{algorithm.3}}
\newlabel{alg:oneea}{{3}{3}{(1+1)~EA~\cite {DrosteJansenWegener2002,OlivetoHeYao2011}\relax }{algorithm.3}{}}
\@writefile{lof}{\contentsline {figure}{\numberline {1}{\ignorespaces The 4/3 approximation local optimum of $P^*_\epsilon $\nonbreakingspace \citep  {Witt2005}\relax }}{3}{figure.caption.3}}
\newlabel{fig:twojobs}{{1}{3}{The 4/3 approximation local optimum of $P^*_\epsilon $~\cite {Witt2005}\relax }{figure.caption.3}{}}
\@writefile{lof}{\contentsline {figure}{\numberline {2}{\ignorespaces A local optimum of $G^*_{\epsilon }$\xspace  \relax }}{3}{figure.caption.4}}
\newlabel{fig:generalised}{{2}{3}{A local optimum of \WittGeneralisedInstance \relax }{figure.caption.4}{}}
\@writefile{toc}{\contentsline {section}{\numberline {3}Generalised Worst-Case Instance}{3}{section.3}}
\newlabel{sec:generalised}{{3}{3}{Generalised Worst-Case Instance}{section.3}{}}
\@writefile{loe}{\contentsline {definition}{\numberline {3.1}Definition}{3}{definition.3.1}}
\citation{Witt2005}
\@writefile{loe}{\contentsline {theorem}{\numberline {3.2}Theorem}{4}{theorem.3.2}}
\@writefile{toc}{\contentsline {subsection}{\numberline {3.1}Hypermutations}{4}{subsection.3.1}}
\newlabel{thmt@@bitflip@data}{{\def \theequation {\@arabic {\c@equation }}\def \theHequation {(restate \theHthmt@dummyctr )3.\@arabic {\c@equation }}\setcounter {equation}{0}}{4}{Hypermutations}{subsection.3.1}{}}
\@writefile{loe}{\contentsline {lemma}{\numberline {3.3}Lemma}{4}{lemma.3.3}}
\newlabel{thmt@@bitflip}{{3.3}{4}{}{lemma.3.3}{}}
\newlabel{lem:bitflip}{{3.3}{4}{}{lemma.3.3}{}}
\newlabel{thmt@@hypinterv@data}{{\def \theequation {\@arabic {\c@equation }}\def \theHequation {(restate \theHthmt@dummyctr )3.\@arabic {\c@equation }}\setcounter {equation}{0}}{4}{Hypermutations}{lemma.3.3}{}}
\@writefile{loe}{\contentsline {lemma}{\numberline {3.4}Lemma}{4}{lemma.3.4}}
\newlabel{thmt@@hypinterv}{{3.4}{4}{}{lemma.3.4}{}}
\newlabel{lem:hypinterv}{{3.4}{4}{}{lemma.3.4}{}}
\citation{serfling1974probability}
\newlabel{thmt@@hypmain@data}{{\def \theequation {\@arabic {\c@equation }}\def \theHequation {(restate \theHthmt@dummyctr )3.\@arabic {\c@equation }}\setcounter {equation}{0}}{5}{Hypermutations}{lemma.3.4}{}}
\@writefile{loe}{\contentsline {theorem}{\numberline {3.5}Theorem}{5}{theorem.3.5}}
\newlabel{thmt@@hypmain}{{3.5}{5}{}{theorem.3.5}{}}
\newlabel{thm:hypmain}{{3.5}{5}{}{theorem.3.5}{}}
\newlabel{thmt@@hypmaincor@data}{{\def \theequation {\@arabic {\c@equation }}\def \theHequation {(restate \theHthmt@dummyctr )3.\@arabic {\c@equation }}\setcounter {equation}{0}}{5}{Hypermutations}{theorem.3.5}{}}
\@writefile{loe}{\contentsline {corollary}{\numberline {3.6}Corollary}{5}{corollary.3.6}}
\newlabel{thmt@@hypmaincor}{{3.6}{5}{}{corollary.3.6}{}}
\newlabel{cor:hypmain}{{3.6}{5}{}{corollary.3.6}{}}
\@writefile{loe}{\contentsline {theorem}{\numberline {3.7}Theorem}{5}{theorem.3.7}}
\citation{Witt2005}
\citation{OlivetoSudholt2014}
\@writefile{loe}{\contentsline {corollary}{\numberline {3.8}Corollary}{6}{corollary.3.8}}
\@writefile{toc}{\contentsline {subsection}{\numberline {3.2}Ageing}{6}{subsection.3.2}}
\@writefile{loe}{\contentsline {theorem}{\numberline {3.9}Theorem}{6}{theorem.3.9}}
\newlabel{th:ageingG}{{3.9}{6}{}{theorem.3.9}{}}
\@writefile{loe}{\contentsline {corollary}{\numberline {3.10}Corollary}{6}{corollary.3.10}}
\citation{Witt2005}
\@writefile{toc}{\contentsline {section}{\numberline {4}$(1+\epsilon )$ Approximation Ratios}{7}{section.4}}
\newlabel{sec:approx}{{4}{7}{$(1+\epsilon )$ Approximation Ratios}{section.4}{}}
\@writefile{toc}{\contentsline {subsection}{\numberline {4.1}Hypermutations}{7}{subsection.4.1}}
\@writefile{loe}{\contentsline {lemma}{\numberline {4.1}Lemma}{7}{lemma.4.1}}
\newlabel{lem:funcflow}{{4.1}{7}{}{lemma.4.1}{}}
\@writefile{loe}{\contentsline {theorem}{\numberline {4.2}Theorem}{7}{theorem.4.2}}
\newlabel{thm:approxhyp}{{4.2}{7}{}{theorem.4.2}{}}
\citation{Witt2005}
\bibstyle{ACM-Reference-Format}
\bibdata{mybib}
\bibcite{Burnet1959}{{1}{1959}{{Burnet}}{{Burnet}}}
\bibcite{EasiestFunctions}{{2}{2016}{{Corus et~al\unhbox \voidb@x \hbox {.}}}{{Corus, He, Jansen, Oliveto, Sudholt, and Zarges}}}
\bibcite{CorusOlivetoYazdani2017}{{3}{2017}{{Corus et~al\unhbox \voidb@x \hbox {.}}}{{Corus, Oliveto, and Yazdani}}}
\bibcite{CutelloTEVC}{{4}{2007}{{Cutello et~al\unhbox \voidb@x \hbox {.}}}{{Cutello, Nicosia, Pavone, and Timmis}}}
\bibcite{AnamolyDetectApp}{{5}{2002}{{Dasgupta and Majumdar}}{{Dasgupta and Majumdar}}}
\bibcite{PatternRecogApp}{{6}{2002}{{de~Castro and Timmis}}{{de~Castro and Timmis}}}
\bibcite{decastro}{{7}{2002}{{de~Castro and Zuben}}{{de~Castro and Zuben}}}
\bibcite{DoerrGecco2017}{{8}{2017}{{Doerr et~al\unhbox \voidb@x \hbox {.}}}{{Doerr, Le, Makhmara, and Nguyen}}}
\bibcite{DrosteJansenWegener2002}{{9}{2002}{{Droste et~al\unhbox \voidb@x \hbox {.}}}{{Droste, Jansen, and Wegener}}}
\bibcite{ComputerSecurityApp}{{10}{1994}{{Forrest et~al\unhbox \voidb@x \hbox {.}}}{{Forrest, Perelson, Allen, and Cherukuri}}}
\bibcite{Graham1969}{{11}{1969}{{Graham}}{{Graham}}}
\bibcite{VirusDetectApp}{{12}{1996}{{Hedberg}}{{Hedberg}}}
\bibcite{Hochbaum1997}{{13}{1997}{{Hochbaum}}{{Hochbaum}}}
\bibcite{JansenOlivetoZarges2011}{{14}{2011}{{Jansen et~al\unhbox \voidb@x \hbox {.}}}{{Jansen, Oliveto, and Zarges}}}
\bibcite{JansenZarges2011c}{{15}{2011}{{Jansen and Zarges}}{{Jansen and Zarges}}}
\bibcite{JansenZarges2012}{{16}{2012}{{Jansen and Zarges}}{{Jansen and Zarges}}}
\bibcite{kelsey}{{17}{2003}{{Kelsey and Timmis}}{{Kelsey and Timmis}}}
\bibcite{NeumannWitt2010}{{18}{2010}{{Neumann and Witt}}{{Neumann and Witt}}}
\bibcite{OlivetoLehreNeumann2009}{{19}{2009}{{Oliveto et~al\unhbox \voidb@x \hbox {.}}}{{Oliveto, Lehre, and Neumann}}}
\bibcite{OlivetoSudholt2014}{{20}{2014}{{Oliveto and Sudholt}}{{Oliveto and Sudholt}}}
\bibcite{OlivetoHeYao2011}{{21}{2011}{{Oliveto and Yao}}{{Oliveto and Yao}}}
\bibcite{serfling1974probability}{{22}{1974}{{Serfling}}{{Serfling}}}
\bibcite{Witt2005}{{23}{2005}{{Witt}}{{Witt}}}
\@writefile{toc}{\contentsline {subsection}{\numberline {4.2}Ageing}{8}{subsection.4.2}}
\@writefile{loe}{\contentsline {theorem}{\numberline {4.3}Theorem}{8}{theorem.4.3}}
\newlabel{thm:approxage}{{4.3}{8}{}{theorem.4.3}{}}
\@writefile{toc}{\contentsline {section}{\numberline {5}Conclusion}{8}{section.5}}
\@writefile{toc}{\contentsline {section}{References}{8}{section*.6}}
\citation{serfling1974probability}
\citation{OlivetoHeYao2011}
\@writefile{toc}{\contentsline {section}{\numberline {A}Appendix}{9}{appendix.A}}
\@writefile{loe}{\contentsline {lemma}{\numberline {3.3}Lemma}{9}{lemma.dummy.19}}
\@writefile{loe}{\contentsline {lemma}{\numberline {3.4}Lemma}{9}{lemma.dummy.21}}
\@writefile{loe}{\contentsline {theorem}{\numberline {A.1}Theorem\thmtformatoptarg {Serfling \citep  {serfling1974probability}}}{9}{theorem.A.1}}
\newlabel{thm:serfling}{{A.1}{9}{Serfling \cite {serfling1974probability}}{theorem.A.1}{}}
\@writefile{loe}{\contentsline {theorem}{\numberline {3.5}Theorem}{9}{theorem.dummy.24}}
\@writefile{loe}{\contentsline {corollary}{\numberline {3.6}Corollary}{9}{corollary.dummy.26}}
\newlabel{tocindent-1}{0pt}
\newlabel{tocindent0}{0pt}
\newlabel{tocindent1}{6.25499pt}
\newlabel{tocindent2}{10.34999pt}
\newlabel{tocindent3}{0pt}
\newlabel{TotPages}{{10}{10}{}{page.10}{}}
