This is BibTeX, Version 0.99dThe top-level auxiliary file: main.aux
The style file: ACM-Reference-Format.bst
Database file #1: mybib.bib
Warning--empty address in Burnet1959
Warning--no number and no volume in EasiestFunctions
Warning--page numbers missing in both pages and numpages fields in EasiestFunctions
Warning--empty publisher in CorusOlivetoYazdani2017
Warning--empty address in CorusOlivetoYazdani2017
Warning--empty publisher in AnamolyDetectApp
Warning--empty address in AnamolyDetectApp
Warning--empty address in PatternRecogApp
Warning--empty publisher in DoerrGecco2017
Warning--empty address in DoerrGecco2017
Warning--empty publisher in ComputerSecurityApp
Warning--empty address in ComputerSecurityApp
Warning--empty address in Hochbaum1997
Warning--empty publisher in JansenOlivetoZarges2011
Warning--empty address in JansenOlivetoZarges2011
Warning--empty publisher in JansenZarges2012
Warning--empty address in JansenZarges2012
Warning--empty publisher in kelsey
Warning--empty address in kelsey
Warning--empty address in NeumannWitt2010
Warning--empty publisher in OlivetoLehreNeumann2009
Warning--empty address in OlivetoLehreNeumann2009
Warning--empty publisher in OlivetoSudholt2014
Warning--empty address in OlivetoSudholt2014
Warning--empty address in OlivetoHeYao2011
Warning--no number and no volume in serfling1974probability
(There were 26 warnings)
