\BOOKMARK [1][-]{section.1}{Introduction}{}% 1
\BOOKMARK [1][-]{section.2}{Preliminaries}{}% 2
\BOOKMARK [1][-]{section.3}{Generalised Worst-Case Instance}{}% 3
\BOOKMARK [2][-]{subsection.3.1}{Hypermutations}{section.3}% 4
\BOOKMARK [2][-]{subsection.3.2}{Ageing}{section.3}% 5
\BOOKMARK [1][-]{section.4}{\(1+\) Approximation Ratios}{}% 6
\BOOKMARK [2][-]{subsection.4.1}{Hypermutations}{section.4}% 7
\BOOKMARK [2][-]{subsection.4.2}{Ageing}{section.4}% 8
\BOOKMARK [1][-]{section.5}{Conclusion}{}% 9
\BOOKMARK [1][-]{appendix.A}{Appendix}{}% 10
