\relax 
\providecommand\hyper@newdestlabel[2]{}
\providecommand\HyperFirstAtBeginDocument{\AtBeginDocument}
\HyperFirstAtBeginDocument{\ifx\hyper@anchor\@undefined
\global\let\oldcontentsline\contentsline
\gdef\contentsline#1#2#3#4{\oldcontentsline{#1}{#2}{#3}}
\global\let\oldnewlabel\newlabel
\gdef\newlabel#1#2{\newlabelxx{#1}#2}
\gdef\newlabelxx#1#2#3#4#5#6{\oldnewlabel{#1}{{#2}{#3}}}
\AtEndDocument{\ifx\hyper@anchor\@undefined
\let\contentsline\oldcontentsline
\let\newlabel\oldnewlabel
\fi}
\fi}
\global\let\hyper@last\relax 
\gdef\HyperFirstAtBeginDocument#1{#1}
\providecommand\HyField@AuxAddToFields[1]{}
\providecommand\HyField@AuxAddToCoFields[2]{}
\bibstyle{elsarticle-num}
\urlauthor{www.elsevier.com}{Elsevier Inc}
\emailauthor{support@elsevier.com}{Global Customer Service\corref {mycorrespondingauthor}}
\citation{ComputerSecurityApp,VirusDetectApp,AnamolyDetectApp}
\citation{decastro}
\citation{kelsey}
\citation{CutelloTEVC}
\citation{JansenOlivetoZarges2011}
\citation{JansenZarges2012}
\Newlabel{mymainaddress}{a}
\Newlabel{mysecondaryaddress}{b}
\Newlabel{mytitlenote}{1}
\Newlabel{mycorrespondingauthor}{1}
\Newlabel{myfootnote}{1}
\@writefile{toc}{\contentsline {section}{\numberline {1}Introduction}{1}{section.1}}
\citation{CorusOlivetoYazdani2017}
\citation{DoerrGecco2017,OlivetoLehreNeumann2009,CorusOlivetoTEVC,JumpTEVC2017,DoerrDoerrEbel2015}
\citation{EasiestFunctions}
\citation{Witt2005,NeumannWitt2010,NeumannWitt2015}
\citation{CorusOlivetoYazdani2018arxiv2}
\citation{CorusOlivetoYazdani2017}
\citation{CutelloTEVC}
\citation{CorusOlivetoYazdani2017}
\citation{CorusOlivetoYazdani2017}
\citation{CorusOlivetoYazdani2017}
\citation{DrosteJansenWegener2002,OlivetoHeYao2011}
\citation{OlivetoSudholt2014}
\@writefile{loa}{\contentsline {algorithm}{\numberline {1}{\ignorespaces (1+1)\nobreakspace  {}IA$^{hyp}$\nobreakspace  {}\cite  {CorusOlivetoYazdani2017} for minimisation}}{3}{algorithm.1}}
\newlabel{alg:hyp}{{1}{3}{Preliminaries}{algorithm.1}{}}
\@writefile{toc}{\contentsline {section}{\numberline {2}Preliminaries}{3}{section.2}}
\citation{JansenZarges2011c}
\citation{OlivetoSudholt2014,CorusOlivetoYazdani2017}
\citation{LehreOliveto2018,OlivetoHeYao2011}
\citation{Graham1969}
\citation{Hochbaum1997}
\@writefile{loa}{\contentsline {algorithm}{\numberline {2}{\ignorespaces $(\mu +1)\nobreakspace  {}\text  {EA}^{ageing}$ \cite  {OlivetoSudholt2014} for minimisation}}{4}{algorithm.2}}
\newlabel{alg:ageing}{{2}{4}{Preliminaries}{algorithm.2}{}}
\citation{Witt2005,NeumannWitt2010}
\citation{Witt2005,NeumannWitt2010}
\citation{Witt2005}
\@writefile{toc}{\contentsline {section}{\numberline {3}Generalised Worst-Case Instance}{5}{section.3}}
\newlabel{sec:generalised}{{3}{5}{Generalised Worst-Case Instance}{section.3}{}}
\citation{Witt2005}
\@writefile{loe}{\contentsline {definition}{\numberline {1}Definition}{6}{definition.1}}
\newlabel{thmt@@theoremone@data}{{\def \theequation {\@arabic {\c@equation }}\def \theHequation {(restate \theHthmt@dummyctr )3.\@arabic {\c@equation }}\setcounter {equation}{0}}{6}{Generalised Worst-Case Instance}{definition.1}{}}
\@writefile{loe}{\contentsline {theorem}{\numberline {1}Theorem}{6}{theorem.1}}
\newlabel{thmt@@theoremone}{{1}{6}{}{theorem.1}{}}
\newlabel{th:1+1}{{1}{6}{}{theorem.1}{}}
\@writefile{toc}{\contentsline {subsection}{\numberline {3.1}Hypermutations}{6}{subsection.3.1}}
\newlabel{thmt@@bitflip@data}{{\def \theequation {\@arabic {\c@equation }}\def \theHequation {(restate \theHthmt@dummyctr )3.\@arabic {\c@equation }}\setcounter {equation}{0}}{6}{Hypermutations}{subsection.3.1}{}}
\@writefile{loe}{\contentsline {lemma}{\numberline {1}Lemma}{6}{lemma.1}}
\newlabel{thmt@@bitflip}{{1}{6}{}{lemma.1}{}}
\newlabel{lem:bitflip}{{1}{6}{}{lemma.1}{}}
\citation{serfling1974probability}
\citation{Witt2005}
\newlabel{thmt@@hypinterv@data}{{\def \theequation {\@arabic {\c@equation }}\def \theHequation {(restate \theHthmt@dummyctr )3.\@arabic {\c@equation }}\setcounter {equation}{0}}{7}{Hypermutations}{lemma.1}{}}
\@writefile{loe}{\contentsline {lemma}{\numberline {2}Lemma}{7}{lemma.2}}
\newlabel{thmt@@hypinterv}{{2}{7}{}{lemma.2}{}}
\newlabel{lem:hypinterv}{{2}{7}{}{lemma.2}{}}
\newlabel{thmt@@hypmain@data}{{\def \theequation {\@arabic {\c@equation }}\def \theHequation {(restate \theHthmt@dummyctr )3.\@arabic {\c@equation }}\setcounter {equation}{0}}{7}{Hypermutations}{lemma.2}{}}
\@writefile{loe}{\contentsline {theorem}{\numberline {2}Theorem}{7}{theorem.2}}
\newlabel{thmt@@hypmain}{{2}{7}{}{theorem.2}{}}
\newlabel{thm:hypmain}{{2}{7}{}{theorem.2}{}}
\newlabel{thmt@@hypmaincor@data}{{\def \theequation {\@arabic {\c@equation }}\def \theHequation {(restate \theHthmt@dummyctr )3.\@arabic {\c@equation }}\setcounter {equation}{0}}{7}{Hypermutations}{theorem.2}{}}
\@writefile{loe}{\contentsline {corollary}{\numberline {1}Corollary}{7}{corollary.1}}
\newlabel{thmt@@hypmaincor}{{1}{7}{}{corollary.1}{}}
\newlabel{cor:hypmain}{{1}{7}{}{corollary.1}{}}
\newlabel{thmt@@thaislocal@data}{{\def \theequation {\@arabic {\c@equation }}\def \theHequation {(restate \theHthmt@dummyctr )3.\@arabic {\c@equation }}\setcounter {equation}{0}}{7}{Hypermutations}{corollary.1}{}}
\@writefile{loe}{\contentsline {theorem}{\numberline {3}Theorem}{7}{theorem.3}}
\newlabel{thmt@@thaislocal}{{3}{7}{}{theorem.3}{}}
\@writefile{loe}{\contentsline {corollary}{\numberline {2}Corollary}{7}{corollary.2}}
\citation{Witt2005}
\citation{Witt2005}
\@writefile{toc}{\contentsline {subsection}{\numberline {3.2}Ageing}{8}{subsection.3.2}}
\newlabel{thmt@@thageinglocal@data}{{\def \theequation {\@arabic {\c@equation }}\def \theHequation {(restate \theHthmt@dummyctr )3.\@arabic {\c@equation }}\setcounter {equation}{0}}{8}{Ageing}{subsection.3.2}{}}
\@writefile{loe}{\contentsline {theorem}{\numberline {4}Theorem}{8}{theorem.4}}
\newlabel{thmt@@thageinglocal}{{4}{8}{}{theorem.4}{}}
\newlabel{th:ageingG}{{4}{8}{}{theorem.4}{}}
\@writefile{loe}{\contentsline {corollary}{\numberline {3}Corollary}{8}{corollary.3}}
\@writefile{toc}{\contentsline {section}{\numberline {4}$(1+\epsilon )$ Approximation Ratios}{8}{section.4}}
\newlabel{sec:approx}{{4}{8}{$(1+\epsilon )$ Approximation Ratios}{section.4}{}}
\@writefile{toc}{\contentsline {subsection}{\numberline {4.1}Hypermutations}{8}{subsection.4.1}}
\newlabel{thmt@@funcflow@data}{{\def \theequation {\@arabic {\c@equation }}\def \theHequation {(restate \theHthmt@dummyctr )4.\@arabic {\c@equation }}\setcounter {equation}{0}}{8}{Hypermutations}{subsection.4.1}{}}
\@writefile{loe}{\contentsline {lemma}{\numberline {3}Lemma}{8}{lemma.3}}
\newlabel{thmt@@funcflow}{{3}{8}{}{lemma.3}{}}
\newlabel{lem:funcflow}{{3}{8}{}{lemma.3}{}}
\newlabel{thmt@@mainresulthyp@data}{{\def \theequation {\@arabic {\c@equation }}\def \theHequation {(restate \theHthmt@dummyctr )4.\@arabic {\c@equation }}\setcounter {equation}{0}}{8}{Hypermutations}{lemma.3}{}}
\@writefile{loe}{\contentsline {theorem}{\numberline {5}Theorem}{8}{theorem.5}}
\newlabel{thmt@@mainresulthyp}{{5}{8}{}{theorem.5}{}}
\newlabel{thm:approxhyp}{{5}{8}{}{theorem.5}{}}
\citation{Witt2005,NeumannWitt2010}
\citation{CutelloTEVC,CorusOlivetoYazdani2017}
\@writefile{toc}{\contentsline {subsection}{\numberline {4.2}Ageing}{10}{subsection.4.2}}
\newlabel{thmt@@thmapproxage@data}{{\def \theequation {\@arabic {\c@equation }}\def \theHequation {(restate \theHthmt@dummyctr )4.\@arabic {\c@equation }}\setcounter {equation}{0}}{10}{Ageing}{subsection.4.2}{}}
\@writefile{loe}{\contentsline {theorem}{\numberline {6}Theorem}{10}{theorem.6}}
\newlabel{thmt@@thmapproxage}{{6}{10}{}{theorem.6}{}}
\newlabel{thm:approxage}{{6}{10}{}{theorem.6}{}}
\bibdata{mybib2}
\bibcite{ComputerSecurityApp}{{1}{}{{}}{{}}}
\bibcite{VirusDetectApp}{{2}{}{{}}{{}}}
\bibcite{AnamolyDetectApp}{{3}{}{{}}{{}}}
\bibcite{decastro}{{4}{}{{}}{{}}}
\bibcite{kelsey}{{5}{}{{}}{{}}}
\bibcite{CutelloTEVC}{{6}{}{{}}{{}}}
\bibcite{JansenOlivetoZarges2011}{{7}{}{{}}{{}}}
\bibcite{JansenZarges2012}{{8}{}{{}}{{}}}
\bibcite{CorusOlivetoYazdani2017}{{9}{}{{}}{{}}}
\bibcite{DoerrGecco2017}{{10}{}{{}}{{}}}
\bibcite{OlivetoLehreNeumann2009}{{11}{}{{}}{{}}}
\bibcite{CorusOlivetoTEVC}{{12}{}{{}}{{}}}
\bibcite{JumpTEVC2017}{{13}{}{{}}{{}}}
\bibcite{DoerrDoerrEbel2015}{{14}{}{{}}{{}}}
\bibcite{EasiestFunctions}{{15}{}{{}}{{}}}
\@writefile{toc}{\contentsline {section}{\numberline {5}Conclusion}{11}{section.5}}
\bibcite{Witt2005}{{16}{}{{}}{{}}}
\bibcite{NeumannWitt2010}{{17}{}{{}}{{}}}
\bibcite{NeumannWitt2015}{{18}{}{{}}{{}}}
\bibcite{CorusOlivetoYazdani2018arxiv2}{{19}{}{{}}{{}}}
\bibcite{DrosteJansenWegener2002}{{20}{}{{}}{{}}}
\bibcite{OlivetoHeYao2011}{{21}{}{{}}{{}}}
\bibcite{OlivetoSudholt2014}{{22}{}{{}}{{}}}
\bibcite{JansenZarges2011c}{{23}{}{{}}{{}}}
\bibcite{LehreOliveto2018}{{24}{}{{}}{{}}}
\bibcite{Graham1969}{{25}{}{{}}{{}}}
\bibcite{Hochbaum1997}{{26}{}{{}}{{}}}
\bibcite{serfling1974probability}{{27}{}{{}}{{}}}
\citation{Witt2005}
\@writefile{toc}{\contentsline {section}{\numberline {Appendix A}Appendix}{13}{appendix.A}}
\@writefile{loe}{\contentsline {theorem}{\numberline {1}Theorem}{13}{theorem.dummy.25}}
\@writefile{loe}{\contentsline {lemma}{\numberline {1}Lemma}{14}{lemma.dummy.27}}
\@writefile{loe}{\contentsline {lemma}{\numberline {2}Lemma}{14}{lemma.dummy.29}}
\citation{serfling1974probability}
\citation{OlivetoHeYao2011}
\@writefile{loe}{\contentsline {theorem}{\numberline {7}Theorem\thmtformatoptarg {Serfling \cite  {serfling1974probability}}}{15}{theorem.7}}
\newlabel{thm:serfling}{{7}{15}{Serfling \cite {serfling1974probability}}{theorem.7}{}}
\@writefile{loe}{\contentsline {theorem}{\numberline {2}Theorem}{15}{theorem.dummy.32}}
\@writefile{loe}{\contentsline {corollary}{\numberline {1}Corollary}{16}{corollary.dummy.34}}
\@writefile{loe}{\contentsline {theorem}{\numberline {3}Theorem}{16}{theorem.dummy.36}}
\@writefile{loe}{\contentsline {theorem}{\numberline {4}Theorem}{18}{theorem.dummy.38}}
\citation{OlivetoSudholt2014}
\@writefile{loe}{\contentsline {lemma}{\numberline {3}Lemma}{19}{lemma.dummy.40}}
\citation{Witt2005}
\@writefile{loe}{\contentsline {theorem}{\numberline {5}Theorem}{20}{theorem.dummy.42}}
\providecommand\NAT@force@numbers{}\NAT@force@numbers
