\relax 
\providecommand\hyper@newdestlabel[2]{}
\providecommand\HyperFirstAtBeginDocument{\AtBeginDocument}
\HyperFirstAtBeginDocument{\ifx\hyper@anchor\@undefined
\global\let\oldcontentsline\contentsline
\gdef\contentsline#1#2#3#4{\oldcontentsline{#1}{#2}{#3}}
\global\let\oldnewlabel\newlabel
\gdef\newlabel#1#2{\newlabelxx{#1}#2}
\gdef\newlabelxx#1#2#3#4#5#6{\oldnewlabel{#1}{{#2}{#3}}}
\AtEndDocument{\ifx\hyper@anchor\@undefined
\let\contentsline\oldcontentsline
\let\newlabel\oldnewlabel
\fi}
\fi}
\global\let\hyper@last\relax 
\gdef\HyperFirstAtBeginDocument#1{#1}
\providecommand\HyField@AuxAddToFields[1]{}
\providecommand\HyField@AuxAddToCoFields[2]{}
\bibstyle{elsarticle-num}
\emailauthor{d.corus@sheffield.ac.uk}{Dogan Corus}
\emailauthor{p.oliveto@sheffield.ac.uk}{Pietro S. Oliveto}
\emailauthor{dyazdani1@sheffield.ac.uk}{Donya Yazdani}
\citation{ComputerSecurityApp,VirusDetectApp,AnamolyDetectApp}
\citation{decastro}
\citation{kelsey}
\citation{CutelloTEVC}
\citation{JansenOlivetoZarges2011}
\citation{JansenZarges2012}
\Newlabel{mytitlenote}{1}
\@writefile{toc}{\contentsline {section}{\numberline {1}Introduction}{1}{section.1}}
\citation{CorusOlivetoYazdani2017}
\citation{DoerrGecco2017,OlivetoLehreNeumann2009,CorusOlivetoTEVC,JumpTEVC2017,DoerrDoerrEbel2015}
\citation{EasiestFunctions}
\citation{Witt2005,NeumannWitt2010,NeumannWitt2015}
\citation{CorusOlivetoYazdani2017}
\citation{CutelloTEVC}
\citation{CorusOlivetoYazdani2017}
\citation{CorusOlivetoYazdani2017}
\citation{CorusOlivetoYazdani2017}
\citation{DrosteJansenWegener2002,OlivetoHeYao2011}
\citation{OlivetoSudholt2014}
\@writefile{loa}{\contentsline {algorithm}{\numberline {1}{\ignorespaces (1+1)\nobreakspace  {}IA$^{hyp}$\nobreakspace  {}\cite  {CorusOlivetoYazdani2017} for minimisation}}{3}{algorithm.1}}
\newlabel{alg:hyp}{{1}{3}{Preliminaries}{algorithm.1}{}}
\@writefile{toc}{\contentsline {section}{\numberline {2}Preliminaries}{3}{section.2}}
\citation{JansenZarges2011c}
\citation{OlivetoSudholt2014,CorusOlivetoYazdani2017}
\citation{LehreOliveto2018,OlivetoHeYao2011}
\citation{Graham1969}
\citation{Hochbaum1997}
\citation{Witt2005,NeumannWitt2010}
\citation{Witt2005,NeumannWitt2010}
\@writefile{loa}{\contentsline {algorithm}{\numberline {2}{\ignorespaces $(\mu +1)\nobreakspace  {}\text  {EA}^{ageing}$ \cite  {OlivetoSudholt2014} for minimisation}}{4}{algorithm.2}}
\newlabel{alg:ageing}{{2}{4}{Preliminaries}{algorithm.2}{}}
\citation{DrosteJansenWegener2002,OlivetoHeYao2011}
\citation{Witt2005}
\citation{Witt2005}
\@writefile{loa}{\contentsline {algorithm}{\numberline {3}{\ignorespaces (1+1)\nobreakspace  {}EA\nobreakspace  {}\cite  {DrosteJansenWegener2002,OlivetoHeYao2011}}}{5}{algorithm.3}}
\newlabel{alg:oneea}{{3}{5}{Preliminaries}{algorithm.3}{}}
\@writefile{lof}{\contentsline {figure}{\numberline {1}{\ignorespaces The 4/3 approximation local optimum of $P^*_\epsilon $\nobreakspace  {}\cite  {Witt2005}}}{5}{figure.1}}
\newlabel{fig:twojobs}{{1}{5}{The 4/3 approximation local optimum of $P^*_\epsilon $~\cite {Witt2005}}{figure.1}{}}
\@writefile{toc}{\contentsline {section}{\numberline {3}Generalised Worst-Case Instance}{5}{section.3}}
\newlabel{sec:generalised}{{3}{5}{Generalised Worst-Case Instance}{section.3}{}}
\citation{Witt2005}
\@writefile{lof}{\contentsline {figure}{\numberline {2}{\ignorespaces $G^*_{\epsilon }$\xspace  }}{6}{figure.2}}
\newlabel{fig:generalised}{{2}{6}{\WittGeneralisedInstance }{figure.2}{}}
\@writefile{lof}{\contentsline {figure}{\numberline {3}{\ignorespaces A local optimum of $G^*_{\epsilon }$\xspace  }}{6}{figure.3}}
\newlabel{fig:generalised}{{3}{6}{A local optimum of \WittGeneralisedInstance }{figure.3}{}}
\@writefile{loe}{\contentsline {definition}{\numberline {1}Definition}{6}{definition.1}}
\citation{Witt2005}
\newlabel{thmt@@theoremone@data}{{\def \theequation {\@arabic {\c@equation }}\def \theHequation {(restate \theHthmt@dummyctr )3.\@arabic {\c@equation }}\setcounter {equation}{0}}{7}{Generalised Worst-Case Instance}{definition.1}{}}
\@writefile{loe}{\contentsline {theorem}{\numberline {1}Theorem}{7}{theorem.1}}
\newlabel{thmt@@theoremone}{{1}{7}{}{theorem.1}{}}
\newlabel{th:1+1}{{1}{7}{}{theorem.1}{}}
\@writefile{toc}{\contentsline {subsection}{\numberline {3.1}Hypermutations}{8}{subsection.3.1}}
\newlabel{thmt@@bitflip@data}{{\def \theequation {\@arabic {\c@equation }}\def \theHequation {(restate \theHthmt@dummyctr )3.\@arabic {\c@equation }}\setcounter {equation}{0}}{8}{Hypermutations}{subsection.3.1}{}}
\@writefile{loe}{\contentsline {lemma}{\numberline {1}Lemma}{8}{lemma.1}}
\newlabel{thmt@@bitflip}{{1}{8}{}{lemma.1}{}}
\newlabel{lem:bitflip}{{1}{8}{}{lemma.1}{}}
\citation{serfling1974probability}
\newlabel{thmt@@hypinterv@data}{{\def \theequation {\@arabic {\c@equation }}\def \theHequation {(restate \theHthmt@dummyctr )3.\@arabic {\c@equation }}\setcounter {equation}{0}}{9}{Hypermutations}{lemma.1}{}}
\@writefile{loe}{\contentsline {lemma}{\numberline {2}Lemma}{9}{lemma.2}}
\newlabel{thmt@@hypinterv}{{2}{9}{}{lemma.2}{}}
\newlabel{lem:hypinterv}{{2}{9}{}{lemma.2}{}}
\citation{serfling1974probability}
\citation{OlivetoHeYao2011}
\@writefile{loe}{\contentsline {theorem}{\numberline {2}Theorem\thmtformatoptarg {Serfling \cite  {serfling1974probability}}}{10}{theorem.2}}
\newlabel{thm:serfling}{{2}{10}{Serfling \cite {serfling1974probability}}{theorem.2}{}}
\newlabel{thmt@@hypmain@data}{{\def \theequation {\@arabic {\c@equation }}\def \theHequation {(restate \theHthmt@dummyctr )3.\@arabic {\c@equation }}\setcounter {equation}{0}}{10}{Hypermutations}{theorem.2}{}}
\@writefile{loe}{\contentsline {theorem}{\numberline {3}Theorem}{10}{theorem.3}}
\newlabel{thmt@@hypmain}{{3}{10}{}{theorem.3}{}}
\newlabel{thm:hypmain}{{3}{10}{}{theorem.3}{}}
\newlabel{thmt@@hypmaincor@data}{{\def \theequation {\@arabic {\c@equation }}\def \theHequation {(restate \theHthmt@dummyctr )3.\@arabic {\c@equation }}\setcounter {equation}{0}}{11}{Hypermutations}{theorem.3}{}}
\@writefile{loe}{\contentsline {corollary}{\numberline {1}Corollary}{11}{corollary.1}}
\newlabel{thmt@@hypmaincor}{{1}{11}{}{corollary.1}{}}
\newlabel{cor:hypmain}{{1}{11}{}{corollary.1}{}}
\newlabel{thmt@@thaislocal@data}{{\def \theequation {\@arabic {\c@equation }}\def \theHequation {(restate \theHthmt@dummyctr )3.\@arabic {\c@equation }}\setcounter {equation}{0}}{11}{Hypermutations}{corollary.1}{}}
\@writefile{loe}{\contentsline {theorem}{\numberline {4}Theorem}{11}{theorem.4}}
\newlabel{thmt@@thaislocal}{{4}{11}{}{theorem.4}{}}
\citation{Witt2005}
\@writefile{loe}{\contentsline {corollary}{\numberline {2}Corollary}{13}{corollary.2}}
\@writefile{toc}{\contentsline {subsection}{\numberline {3.2}Ageing}{13}{subsection.3.2}}
\newlabel{thmt@@thageinglocal@data}{{\def \theequation {\@arabic {\c@equation }}\def \theHequation {(restate \theHthmt@dummyctr )3.\@arabic {\c@equation }}\setcounter {equation}{0}}{13}{Ageing}{subsection.3.2}{}}
\citation{OlivetoSudholt2014}
\@writefile{loe}{\contentsline {theorem}{\numberline {5}Theorem}{14}{theorem.5}}
\newlabel{thmt@@thageinglocal}{{5}{14}{}{theorem.5}{}}
\newlabel{th:ageingG}{{5}{14}{}{theorem.5}{}}
\citation{Witt2005}
\@writefile{loe}{\contentsline {corollary}{\numberline {3}Corollary}{15}{corollary.3}}
\@writefile{toc}{\contentsline {section}{\numberline {4}$(1+\epsilon )$ Approximation Ratios}{15}{section.4}}
\newlabel{sec:approx}{{4}{15}{$(1+\epsilon )$ Approximation Ratios}{section.4}{}}
\@writefile{toc}{\contentsline {subsection}{\numberline {4.1}Hypermutations}{15}{subsection.4.1}}
\newlabel{thmt@@funcflow@data}{{\def \theequation {\@arabic {\c@equation }}\def \theHequation {(restate \theHthmt@dummyctr )4.\@arabic {\c@equation }}\setcounter {equation}{0}}{15}{Hypermutations}{subsection.4.1}{}}
\@writefile{loe}{\contentsline {lemma}{\numberline {3}Lemma}{15}{lemma.3}}
\newlabel{thmt@@funcflow}{{3}{15}{}{lemma.3}{}}
\newlabel{lem:funcflow}{{3}{15}{}{lemma.3}{}}
\newlabel{thmt@@mainresulthyp@data}{{\def \theequation {\@arabic {\c@equation }}\def \theHequation {(restate \theHthmt@dummyctr )4.\@arabic {\c@equation }}\setcounter {equation}{0}}{15}{Hypermutations}{lemma.3}{}}
\citation{Witt2005}
\@writefile{loe}{\contentsline {theorem}{\numberline {6}Theorem}{16}{theorem.6}}
\newlabel{thmt@@mainresulthyp}{{6}{16}{}{theorem.6}{}}
\newlabel{thm:approxhyp}{{6}{16}{}{theorem.6}{}}
\citation{Witt2005,NeumannWitt2010}
\@writefile{toc}{\contentsline {subsection}{\numberline {4.2}Ageing}{17}{subsection.4.2}}
\citation{Witt2005}
\citation{CutelloTEVC,CorusOlivetoYazdani2017}
\bibdata{mybib2}
\bibcite{ComputerSecurityApp}{{1}{}{{}}{{}}}
\bibcite{VirusDetectApp}{{2}{}{{}}{{}}}
\bibcite{AnamolyDetectApp}{{3}{}{{}}{{}}}
\newlabel{thmt@@thmapproxage@data}{{\def \theequation {\@arabic {\c@equation }}\def \theHequation {(restate \theHthmt@dummyctr )4.\@arabic {\c@equation }}\setcounter {equation}{0}}{18}{Ageing}{subsection.4.2}{}}
\@writefile{loe}{\contentsline {theorem}{\numberline {7}Theorem}{18}{theorem.7}}
\newlabel{thmt@@thmapproxage}{{7}{18}{}{theorem.7}{}}
\newlabel{thm:approxage}{{7}{18}{}{theorem.7}{}}
\@writefile{toc}{\contentsline {section}{\numberline {5}Conclusion}{18}{section.5}}
\bibcite{decastro}{{4}{}{{}}{{}}}
\bibcite{kelsey}{{5}{}{{}}{{}}}
\bibcite{CutelloTEVC}{{6}{}{{}}{{}}}
\bibcite{JansenOlivetoZarges2011}{{7}{}{{}}{{}}}
\bibcite{JansenZarges2012}{{8}{}{{}}{{}}}
\bibcite{CorusOlivetoYazdani2017}{{9}{}{{}}{{}}}
\bibcite{DoerrGecco2017}{{10}{}{{}}{{}}}
\bibcite{OlivetoLehreNeumann2009}{{11}{}{{}}{{}}}
\bibcite{CorusOlivetoTEVC}{{12}{}{{}}{{}}}
\bibcite{JumpTEVC2017}{{13}{}{{}}{{}}}
\bibcite{DoerrDoerrEbel2015}{{14}{}{{}}{{}}}
\bibcite{EasiestFunctions}{{15}{}{{}}{{}}}
\bibcite{Witt2005}{{16}{}{{}}{{}}}
\bibcite{NeumannWitt2010}{{17}{}{{}}{{}}}
\bibcite{NeumannWitt2015}{{18}{}{{}}{{}}}
\bibcite{DrosteJansenWegener2002}{{19}{}{{}}{{}}}
\bibcite{OlivetoHeYao2011}{{20}{}{{}}{{}}}
\bibcite{OlivetoSudholt2014}{{21}{}{{}}{{}}}
\bibcite{JansenZarges2011c}{{22}{}{{}}{{}}}
\bibcite{LehreOliveto2018}{{23}{}{{}}{{}}}
\bibcite{Graham1969}{{24}{}{{}}{{}}}
\bibcite{Hochbaum1997}{{25}{}{{}}{{}}}
\bibcite{serfling1974probability}{{26}{}{{}}{{}}}
\providecommand\NAT@force@numbers{}\NAT@force@numbers
